<?xml version="1.0" encoding="utf-8"?>
<!-- Generator: Adobe Illustrator 17.0.0, SVG Export Plug-In . SVG Version: 6.00 Build 0)  -->
<!DOCTYPE svg PUBLIC "-//W3C//DTD SVG 1.1//EN" "http://www.w3.org/Graphics/SVG/1.1/DTD/svg11.dtd">
<svg version="1.1" id="alumbra" xmlns="http://www.w3.org/2000/svg" xmlns:xlink="http://www.w3.org/1999/xlink" x="0px" y="0px"
	 width="915px" height="655.418px" viewBox="0 0 915 655.418" style="enable-background:new 0 0 915 655.418;" xml:space="preserve"
	>
<style type="text/css">
	.st0{fill:transparent;
		-webkit-animation: color 800ms forwards 500ms;
		-moz-animation: color 800ms forwards 500ms;
		-ms-animation: color 800ms forwards 500ms;
		-o-animation: color 800ms forwards 500ms;
		animation: color 800ms forwards 500ms; 
	}

	.st1{fill:none;
		stroke:#7f7f7f;
		stroke-linecap:round;
		stroke-linejoin:round;
		stroke-miterlimit:10;
		stroke-dasharray:1450;
		stroke-dashoffset:0;
		opacity:1;
		-webkit-animation: animacion 2.5s forwards;
		-moz-animation: animacion 2.5s forwards;
		-ms-animation: animacion 2.5s forwards;
		-o-animation: animacion 2.5s forwards;
		animation: animacion 2.5s forwards;
	}

	@keyframes animacion {
		0%{
			stroke-dashoffset:1450;
			
			opacity:1;
		}
		90%{
			stroke-dashoffset:0;
			
			opacity:0.4;
		}

		100%{
			stroke-dashoffset:1450;
			
			opacity:0;
		}
	}

	@keyframes color {
		from{
			fill:#transparent;
		}

		to{
			fill:#f7c317;
		}
	}

</style>
<g id="puño">
	<polygon class="st0" points="451.251,324.875 450.285,277.044 426.098,304.71 431.412,325.209 412.947,326.328 393.861,296.848 
		392.387,358.983 424.437,370.472 451.135,405.848 453.948,366.473 483.661,352.066 486.182,281.731 470.078,318.013 	"/>
	<polygon class="st0" points="395.108,185.052 407.58,176.208 405.993,135.843 394.088,129.947 380.595,146.501 382.409,178.702 	
		"/>
	<polygon class="st0" points="425.041,183.238 438.647,173.487 440.915,120.876 424.588,117.475 410.188,133.349 412.796,176.208 	
		"/>
	<polygon class="st0" points="513.071,138 506.078,57.208 492.184,47.858 479.396,60.376 477.264,117.697 485.702,138 	"/>
	<polygon class="st0" points="535.238,190.136 531.828,149.439 513.071,140.227 461.324,143.1 455.95,152.451 461.324,167.344 
		484.937,170.101 507.104,160.183 488.774,174.194 480.248,189.085 480.969,195.51 499.118,197.962 481.204,199.867 
		472.575,193.747 442.736,206.822 468.313,286.248 451.588,269.623 466.086,315.67 487.282,267.491 491.758,345.926 
		487.282,359.993 535.238,403.274 504.12,245.325 492.61,246.604 477.264,240.636 502.369,239.703 	"/>
	<polygon class="st0" points="411.662,315.897 418.465,304.105 427.082,240.837 444.997,261.926 427.082,203.193 471.614,190.891 
		479.693,174.394 456.335,171.446 449.532,151.717 456.562,138.791 481.28,138.564 474.25,116.341 458.376,110.445 445.904,119.743 
		444.77,174.394 457.469,182.784 466.086,175.754 472.209,177.342 458.15,188.907 442.736,177.795 425.722,189.134 410.982,180.97 
		395.335,188.453 380.595,182.557 381.048,219.067 395.108,239.93 415.971,249.227 390.573,244.465 339.096,385.288 
		389.892,331.431 389.666,286.19 	"/>
	<path class="st0" d="M451.588,4.737c-127.105,0-230.145,103.039-230.145,230.145c0,127.106,103.039,230.145,230.145,230.145
		c127.106,0,230.145-103.039,230.145-230.145C681.733,107.776,578.694,4.737,451.588,4.737z M451.588,446.682
		c-116.974,0-211.8-94.826-211.8-211.8s94.826-211.8,211.8-211.8s211.8,94.826,211.8,211.8S568.562,446.682,451.588,446.682z"/>
</g>
<g id="texto">
	<path class="st0" d="M759.727,626.816l-11.995-20.73c-10.508-19.729-33.915-17.093-33.915-17.093
		c1.943,1.401,3.962,3.117,6.077,5.241c3.529,3.543,6.981,8.156,10.352,13.838l16.792,27.869c0.254,0.256,1.003,1.357,2.242,3.304
		c1.239,1.947,2.177,3.4,2.816,4.356c1.081,1.471,2.097,2.939,3.053,4.249c0.952,1.31,1.97,4.151,3.053,4.151H784v-2.584
		c-3-0.319-6.905-1.756-10.37-4.309C770.163,642.555,765.453,636.456,759.727,626.816z"/>
	<path class="st0" d="M675.211,516.977c2.734,2.299,4.789,6.783,4.789,12.4v42.208c4,0.675,7,1.37,14,2.09V516.51
		c3-0.573,4.315-0.862,7.876-0.862c8.779,0,15.774,1.772,20.959,5.315c5.185,3.543,7.995,6.774,10.157,11.977
		c2.162,5.203,3.247,10.518,3.247,15.944c0,6.513-1.206,12.019-3.623,16.52c-2.418,4.499-5.442,6.87-10.816,9.297
		c-1.959,0.885-4.124,1.604-6.484,2.166c17.169,3.44,24.995-2.317,24.995-2.317c4.421-3.383,7.693-7.422,9.826-12.115
		c2.13-4.693,3.196-9.591,3.196-14.702c0-4.022-0.653-8.107-1.956-12.258c-1.306-4.149-3.469-8.093-6.487-11.828
		c-3.022-3.735-7.251-6.198-12.69-8.626c-5.439-2.426-12.07-3.023-19.894-3.023H664v1h1.559
		C668.802,513,672.477,514.678,675.211,516.977z"/>
	<path class="st0" d="M694,633.278V585.99c-7-0.657-11-1.299-14-1.916v49.203c0,3.83-1.4,6.881-2.833,9.145
		c-1.431,2.268-3.396,3.864-5.558,4.789c-2.162,0.927-5.608,1.453-7.608,1.58V652h43v-3.208C700,648.473,694,643.303,694,633.278z"
		/>
	<path class="st0" d="M563.947,516.571c2.384,2.777,2.053,8.074,2.053,13.115v31.499c6,0.287,9,0.59,15,0.912v-44.04
		c5-1.402,9.029-2.106,12.653-2.106c4.134,0,8.029,0.831,11.527,2.491c3.498,1.66,6.558,3.96,9.103,6.896
		c2.542,2.937,4.503,4.47,5.84,8.269c1.337,3.799,2.014,7.804,2.014,12.019c0,5.426-0.997,10.054-3,13.885
		c-1.074,2.054-2.177,3.792-3.307,5.257c10.812,0.789,14.33-1.141,14.33-1.141c5.47-5.299,8.206-12.195,8.206-20.685
		c0-4.597-0.953-8.858-2.861-12.784c-1.91-3.928-4.628-7.438-8.158-10.537c-3.53-3.095-7.839-5.376-12.927-7.134
		c-5.091-1.756-10.654-2.488-16.697-2.488H553v3h1.96C559.029,513,561.563,513.792,563.947,516.571z"/>
	<path class="st0" d="M645.81,595.233c-1.718-2.745-3.817-5.268-6.299-7.567c-2.736-2.553-5.863-4.339-9.049-5.791
		c-23.901-10.887-64.462-7.01-64.462-7.01v57.846c0,5.172-0.883,8.438-3.459,11.023c-2.578,2.585-5.241,3.266-8.802,3.266H552v5
		h52.4c11.959,0,21.34-2.495,28.146-6.261c4.771-2.745,9.047-7.073,12.831-12.372c3.784-5.299,5.678-11.773,5.678-19.115
		c0-3.383-0.446-6.764-1.335-9.989C648.831,601.039,647.526,597.976,645.81,595.233z M629.205,632.412
		c-5.471,8.619-14.662,12.928-27.573,12.928c-6.235,0-10.845-0.827-13.833-2.489c-2.99-1.66-4.974-3.623-5.642-5.889
		c-0.668-2.266-1.157-5.221-1.157-8.474v-49.994c33,0,44.078,10.714,44.078,10.714c3.275,2.908,5.591,5.78,7.469,10.119
		c1.874,4.343,2.282,8.837,2.282,14.199C634.829,620.934,632.959,626.475,629.205,632.412z"/>
	<path class="st0" d="M437.495,558.875L419.826,512H386v1.865c3,0.19,5.033,0.399,6.622,0.622c1.589,0.225,3.629,1.007,5.791,2.346
		c1.018,0.575,1.974,1.357,3.088,2.347c1.112,0.991,1.997,1.979,2.761,2.968c0.762,0.992,1.118,1.676,1.118,2.061l-2.002,35.37
		c1.765-0.094,3.538-0.043,5.309-0.132L410.448,530h0.381l10.983,29.016C427.024,558.807,432.251,559.002,437.495,558.875z"/>
	<path class="st0" d="M528.608,643.606c-1.972-3.191-2.775-6.992-2.904-11.395l-2.75-60.181c-4.82-0.163-9.6-0.31-14.464-0.437
		l2.737,58.415c0.317,6.003-0.29,10.424-2.389,13.265c-2.099,2.841-5.837,4.581-11.837,5.219V652h44v-3.511
		C535,648.428,530.58,646.799,528.608,643.606z"/>
	<path class="st0" d="M506.391,524l1.564,34.212c4.858,0.131,9.691,0.513,14.506,0.68l-1.375-28.709c-0.19-0.573-0.19-1.091,0-1.666
		c0.125-3.639,0.461-6.162,1.001-7.632c0.541-1.469,1.892-3.018,4.055-4.679c1.399-1.085,2.33-1.73,3.475-1.955
		c1.145-0.223,3.383-0.487,5.383-0.807V510h-29.342l-18.326,47.848c1.811,0.029,3.627,0.094,5.432,0.128L506.01,524H506.391z"/>
	<path class="st0" d="M410.116,645.494c-2.037-1.308-3.516-3.478-4.437-6.511c-0.922-3.033-1.255-7.295-1.001-12.786l3.262-54.519
		c-1.754,0.054-3.509,0.1-5.265,0.16l-2.952,52.518c-0.381,5.491-0.94,9.816-1.669,12.977c-0.733,3.158-2.337,5.792-4.688,7.899
		c-2.355,2.106-6.366,3.195-10.366,3.256V652h36.769l-0.114-3.559C415.648,647.802,412.152,646.804,410.116,645.494z"/>
	<path class="st0" d="M462.026,624.356l-19.798-53.374c-5.223,0.047-10.451,0.127-15.687,0.229l29.855,78.81l31.276-78.866
		c-1.752-0.027-3.499-0.058-5.257-0.082L462.026,624.356z"/>
	<path class="st0" d="M329,513.865c7,0.573,11.68,2.362,13.462,5.363c1.78,3.001,3.538,6.449,3.538,10.342v33.417
		c1-0.121,4.085-0.247,6.243-0.366c2.638-0.145,3.757-0.305,7.757-0.459V529.38c0-3.383,0.788-6.736,2.634-10.056
		c1.845-3.32,6.366-5.139,12.366-5.459V512h-46V513.865z"/>
	<path class="st0" d="M257.129,569.99c2.69-0.303,3.871-0.584,8.871-0.867v-39.099c0-3.703,0.093-7.055,1.874-10.056
		c1.78-3.001,7.126-4.884,13.126-5.649V512h-45v2.319c7,0.51,9.743,2.202,11.43,5.076c1.685,2.872,2.57,6.415,2.57,10.629v40.731
		C253,570.499,254.985,570.231,257.129,569.99z"/>
	<path class="st0" d="M361.57,641.737c-1.241-2.139-1.57-5.06-1.57-8.762v-59.083c-5,0.29-10,0.593-14,0.923v28.569
		c0,17.621-6.315,30.423-17.955,38.402c-3.88,2.683-8.295,4.597-12.747,5.747c-4.454,1.148-8.425,1.724-11.668,1.724
		c-7.761,0-14.754-2.012-20.861-6.034c-6.106-4.022-10.054-9.608-13.108-16.759c-2.863-6.703-3.661-17.077-3.661-31.123v-13.076
		c-7,0.566-11,1.141-16,1.743v12.483c0,5.809,0.435,11.413,1.137,16.808c0.698,5.395,2.429,10.582,5.101,15.562
		c3.752,7.023,9.642,12.928,17.624,17.717c7.98,4.789,16.978,8.84,26.963,8.84c8.84,0,17.322-2.202,25.433-6.609
		c8.109-4.405,14.698-11.364,18.769-20.877l0.974,0.383V652h29v-3.511c-5-0.573-5.976-1.308-8.171-2.202
		C364.636,645.394,362.809,643.878,361.57,641.737z"/>
	<path class="st0" d="M159,529.222v56.126c3-0.513,5.9-1.025,8.656-1.526c2.324-0.423,4.908-0.849,7.255-1.274l-0.223-53.544
		c0-6.001,1.146-10.117,4.199-12.354c3.053-2.233,7.113-3.416,10.113-3.543V510h-43v3.325c3,0.127,6.596,1.339,9.553,3.639
		C158.51,519.262,159,523.35,159,529.222z"/>
	<path class="st0" d="M225.379,638.411c-1.845,2.618-4.341,4.737-7.489,6.012c-3.148,1.279-5.395,1.577-10.673,1.577h-12.117
		c-6.934,0-12.028-0.719-15.081-3.083c-3.053-2.36-4.579-6.617-4.579-12.747l-0.219-34.918c-2.632,0.463-5.756,0.912-8.359,1.386
		c-2.487,0.452-4.862,0.91-7.862,1.369v34.893c0,4.916-0.862,8.731-3.5,11.445c-2.64,2.714-4.916,4.069-8.35,4.069l-1.15-0.568V652
		h82.515l5.343-25h-2.852C229.099,633,227.224,635.794,225.379,638.411z"/>
	<path class="st0" d="M106.991,597.383L75.846,510H65.542L27.914,622.93c1.838-0.784,3.697-1.974,5.598-2.745l8.748-25.843
		l1.622-5.237L65.351,522h0.381l22.898,67.075l1.738,5.211l2.139,6.422C97.235,599.428,102.062,598.615,106.991,597.383z"/>
	<path class="st0" d="M124.22,641.313c-1.972-2.808-4.071-7.342-6.297-13.599l-6.961-19.647c-5,1.139-9.914,2.299-14.735,3.481
		l6.159,18.082c0,0.258,0.127,0.64,0.381,1.15c1.208,3.639,1.814,6.544,1.814,8.715c0,3.96-0.736,6.386-3.278,7.278
		c-2.543,0.894-6.304,1.341-9.304,1.341V652h44v-3.888c-1-0.254-4.697-0.749-6.51-1.484
		C127.676,645.893,126.19,644.123,124.22,641.313z"/>
	<path class="st0" d="M28.809,638.588c0-1.841,0.35-4.107,0.976-6.711c-1.172,0.461-2.369,0.914-3.516,1.381
		c-0.864,0.352-1.711,0.708-2.56,1.061c-1.584,3.657-3.408,6.578-5.328,8.722C15.55,646.202,12,648.005,7,648.451V652h34v-3.549
		c-5,0-6.845-0.653-8.815-1.963C30.215,645.182,28.809,642.548,28.809,638.588z"/>
	<path class="st0" d="M891.104,615.767L857.107,512h-10.304l-29.331,83.662c4.931,1.23,9.756,2.029,14.484,3.31l2.139-6.357
		l1.738-5.221L856.915,524h0.381l21.467,66.982l1.622,5.099l5.56,17.823C887.848,614.677,889.268,614.983,891.104,615.767z"/>
	<path class="st0" d="M819.883,641.307c0-2.17,0.606-5.076,1.814-8.715c0.256-0.51,0.381-0.893,0.381-1.15l6.159-21.71
		c-4.82-1.183-9.735-2.342-14.734-3.481l-6.961,23.275c-2.226,6.257-4.325,10.791-6.297,13.599c-1.97,2.81-4.19,4.581-6.002,5.315
		c-1.814,0.735-5.243,1.232-7.243,1.484V653h47v-3.074c-5,0-7.526-0.446-10.071-1.341
		C821.385,647.693,819.883,645.267,819.883,641.307z"/>
	<path class="st0" d="M903.942,644.856c-1.919-2.144-5.198-10.506-6.784-14.165c-0.851-0.354-1.714-0.709-2.577-1.061
		c-1.148-0.466-2.353-0.922-3.525-1.381c0.628,2.603,2.786,10.312,2.786,12.153c0,3.96-0.73,6.594-2.702,7.901
		c-1.97,1.31-5.141,1.963-8.141,1.963V653h32v-2.735C911,649.819,906.774,648.016,903.942,644.856z"/>
</g>
<g id="trazado">
	<g>
		<polygon class="st1" points="451.251,324.875 450.285,277.044 426.098,304.71 431.412,325.209 412.947,326.328 393.861,296.848 
			392.387,358.983 424.437,370.472 451.135,405.848 453.948,366.473 483.661,352.066 486.182,281.731 470.078,318.013 		"/>
		<polygon class="st1" points="395.108,185.052 407.58,176.208 405.993,135.843 394.088,129.947 380.595,146.501 382.409,178.702 		
			"/>
		<polygon class="st1" points="425.041,183.238 438.647,173.487 440.915,120.876 424.588,117.475 410.188,133.349 412.796,176.208 
					"/>
		<polygon class="st1" points="513.071,138.5 506.078,57.458 492.184,47.983 479.396,60.439 477.264,117.978 485.702,138.5 		"/>
		<polygon class="st1" points="461.324,143.1 455.95,152.451 461.324,167.344 484.937,170.101 507.104,160.183 488.774,174.194 
			480.248,189.085 480.969,195.51 499.118,197.962 481.204,199.867 472.575,193.747 442.736,206.822 468.313,286.248 
			451.588,269.623 466.086,315.67 487.282,267.491 491.758,345.926 487.282,359.993 535.238,403.274 504.12,245.325 492.61,246.604 
			477.264,240.636 502.369,239.703 535.238,190.136 531.828,149.439 513.071,140.227 		"/>
		<polygon class="st1" points="339.096,385.288 389.892,331.431 389.666,286.19 411.662,315.897 418.465,304.105 427.082,240.837 
			444.997,261.926 427.082,203.193 471.614,190.891 479.693,174.394 456.335,171.446 449.532,151.717 456.562,138.791 
			481.28,138.564 474.25,116.341 458.376,110.445 445.904,119.743 444.77,174.394 457.469,182.784 466.086,175.754 472.209,177.342 
			458.15,188.907 442.736,177.795 425.722,189.134 410.982,180.97 395.335,188.453 380.595,182.557 381.048,219.067 395.108,239.93 
			415.971,249.227 390.573,244.465 		"/>
		<path class="st1" d="M451.588,465.027c127.106,0,230.145-103.039,230.145-230.145c0-127.106-103.039-230.145-230.145-230.145
			c-127.105,0-230.145,103.039-230.145,230.145C221.443,361.987,324.483,465.027,451.588,465.027z M451.588,23.081
			c116.974,0,211.8,94.826,211.8,211.8s-94.826,211.8-211.8,211.8s-211.8-94.826-211.8-211.8S334.614,23.081,451.588,23.081z"/>
		<path class="st1" d="M759.727,626.816l-11.995-20.73c-10.508-19.729-33.915-17.093-33.915-17.093
			c1.943,1.401,3.962,3.117,6.077,5.241c3.529,3.543,6.981,8.156,10.352,13.838l16.792,27.869c0.254,0.256,1.003,1.357,2.242,3.304
			c1.239,1.947,2.177,3.4,2.816,4.356c1.081,1.471,2.097,3.189,3.053,4.499c0.952,1.31,1.97,4.401,3.053,4.401H783.5v-3.084
			c-3-0.319-6.655-1.756-10.12-4.309C769.913,642.555,765.453,636.456,759.727,626.816z"/>
		<path class="st1" d="M663.5,513.5h2.059c3.244,0,6.169,1.428,8.903,3.727c2.734,2.299,4.039,6.533,4.039,12.15v42.208
			c5,0.675,8,1.37,14,2.09V516.51c3-0.573,5.065-0.862,8.627-0.862c8.779,0,16.149,1.772,21.334,5.315
			c5.185,3.543,8.182,6.774,10.345,11.977c2.162,5.203,3.341,10.518,3.341,15.944c0,6.513-1.159,12.019-3.576,16.52
			c-2.418,4.499-5.419,6.87-10.792,9.297c-1.959,0.885-4.112,1.604-6.472,2.166c17.169,3.44,25.001-2.317,25.001-2.317
			c4.421-3.383,7.696-7.422,9.829-12.115c2.13-4.693,3.198-9.591,3.198-14.702c0-4.022-0.652-8.107-1.955-12.258
			c-1.306-4.149-3.468-8.093-6.487-11.828c-3.022-3.735-7.251-5.948-12.69-8.376c-5.439-2.426-12.069-2.773-19.894-2.773H663.5
			V513.5z"/>
		<path class="st1" d="M692.5,633.278V585.99c-6-0.657-10-1.299-14-1.916v49.203c0,3.83-0.65,6.881-2.083,9.145
			c-1.431,2.268-3.271,3.864-5.433,4.789c-2.163,0.927-5.484,1.453-7.484,1.58v3.708h43v-3.708
			C698.5,648.473,692.5,643.303,692.5,633.278z"/>
		<path class="st1" d="M615.826,564.768c10.812,0.789,14.332-1.141,14.332-1.141c5.47-5.299,8.207-12.195,8.207-20.685
			c0-4.597-0.952-8.858-2.86-12.784c-1.91-3.928-4.628-7.438-8.158-10.537c-3.53-3.095-7.839-5.126-12.927-6.884
			c-5.091-1.756-10.654-2.238-16.697-2.238H552.5v3h2.46c4.069,0,6.353,0.542,8.737,3.321c2.384,2.777,1.803,7.824,1.803,12.865
			v31.499c6,0.287,9,0.59,15,0.912v-44.04c5-1.402,9.279-2.106,12.903-2.106c4.134,0,8.154,0.831,11.652,2.491
			c3.498,1.66,6.621,3.96,9.166,6.896c2.542,2.937,4.534,4.47,5.871,8.269c1.337,3.799,2.029,7.804,2.029,12.019
			c0,5.426-0.989,10.054-2.992,13.885C618.056,561.565,616.957,563.303,615.826,564.768z"/>
		<path class="st1" d="M645.81,595.233c-1.718-2.745-3.817-5.268-6.299-7.567c-2.736-2.553-6.113-4.339-9.299-5.791
			c-23.901-10.887-64.712-7.01-64.712-7.01v57.846c0,5.172-0.633,8.688-3.209,11.273c-2.578,2.585-4.991,3.516-8.552,3.516H551.5v5
			h52.9c11.959,0,21.34-2.745,28.146-6.511c4.771-2.745,9.047-7.198,12.831-12.497c3.784-5.299,5.678-11.836,5.678-19.178
			c0-3.383-0.446-6.795-1.335-10.021C648.831,601.07,647.526,597.976,645.81,595.233z M629.205,632.412
			c-5.471,8.619-14.662,12.928-27.573,12.928c-6.235,0-10.845-0.827-13.833-2.489c-2.99-1.66-5.224-3.623-5.892-5.889
			c-0.668-2.266-1.407-5.221-1.407-8.474v-49.994c32,0,44.328,10.714,44.328,10.714c3.275,2.908,5.716,5.78,7.594,10.119
			c1.874,4.343,2.345,8.837,2.345,14.199C634.767,620.934,632.959,626.475,629.205,632.412z"/>
		<path class="st1" d="M419.826,512.5H384.5v1.365c4,0.19,5.783,0.399,7.372,0.622c1.589,0.225,4.004,1.007,6.166,2.346
			c1.018,0.575,2.161,1.357,3.275,2.347c1.112,0.991,2.091,1.979,2.855,2.968c0.762,0.992,1.164,1.676,1.164,2.061l-1.978,35.37
			c1.765-0.094,3.55,0.207,5.32,0.118l1.774-29.198h0.381l10.983,28.859c5.212-0.209,10.439-0.194,15.683-0.321L419.826,512.5z"/>
		<path class="st1" d="M528.358,643.606c-1.972-3.191-2.65-6.992-2.779-11.395l-2.688-60.181c-4.82-0.163-9.569-0.31-14.433-0.437
			l2.752,58.415c0.317,6.003-1.033,10.424-3.132,13.265c-2.099,2.841-6.58,4.581-12.58,5.219v4.007h45v-4.011
			C534.5,648.428,530.33,646.799,528.358,643.606z"/>
		<path class="st1" d="M506.391,524.5l1.564,33.962c4.858,0.131,9.691,0.388,14.506,0.555l-1.375-28.772
			c-0.19-0.573-0.19-1.122,0-1.698c0.125-3.639,0.461-6.178,1.001-7.647c0.541-1.469,1.892-3.025,4.055-4.687
			c1.399-1.085,2.08-1.734,3.225-1.959c1.145-0.223,3.133-0.491,5.133-0.811V510.5h-28.842l-18.326,47.598
			c1.811,0.029,3.627,0.219,5.432,0.253L506.01,524.5H506.391z"/>
		<path class="st1" d="M410.116,645.494c-2.037-1.308-3.516-3.478-4.437-6.511c-0.922-3.033-1.255-7.295-1.001-12.786l3.262-54.519
			c-1.754,0.054-3.509,0.1-5.265,0.16l-2.952,52.518c-0.381,5.491-0.94,9.816-1.669,12.977c-0.733,3.158-3.087,5.792-5.438,7.899
			c-2.355,2.106-6.116,3.195-11.116,3.256v4.012h38.269l-0.114-3.809C415.648,648.052,412.152,646.804,410.116,645.494z"/>
		<path class="st1" d="M462.026,624.356l-19.798-53.374c-5.223,0.047-10.451,0.127-15.687,0.229l29.855,78.81l31.276-78.866
			c-1.752-0.027-3.499-0.058-5.257-0.082L462.026,624.356z"/>
		<path class="st1" d="M327.5,513.865c8,0.573,11.68,2.362,13.462,5.363c1.78,3.001,3.538,6.449,3.538,10.342v33.417
			c2-0.121,4.085-0.247,6.243-0.366c2.638-0.145,4.757-0.305,7.757-0.459V529.38c0-3.383,1.288-6.736,3.134-10.056
			c1.845-3.32,6.866-5.139,12.866-5.459V512.5h-47V513.865z"/>
		<path class="st1" d="M249.5,570.755c3-0.256,4.485-0.524,6.629-0.766c2.69-0.303,4.371-0.584,8.371-0.867v-39.099
			c0-3.703,0.593-7.055,2.374-10.056c1.78-3.001,7.626-4.884,13.626-5.649V512.5h-45v1.819c6,0.51,9.743,2.202,11.43,5.076
			c1.685,2.872,2.57,6.415,2.57,10.629V570.755z"/>
		<path class="st1" d="M360.82,641.737c-1.241-2.139-2.32-5.06-2.32-8.762v-59.083c-4,0.29-9,0.593-14,0.923v28.569
			c0,17.621-5.565,30.423-17.205,38.402c-3.88,2.683-7.92,4.597-12.372,5.747c-4.454,1.148-8.237,1.724-11.481,1.724
			c-7.761,0-14.66-2.012-20.767-6.034c-6.106-4.022-10.758-9.608-13.811-16.759c-2.863-6.703-4.364-17.077-4.364-31.123v-13.076
			c-6,0.566-10,1.141-15,1.743v12.483c0,5.809,0.685,11.413,1.387,16.808c0.698,5.395,2.554,10.582,5.226,15.562
			c3.752,7.023,9.704,12.928,17.687,17.717c7.98,4.789,17.009,8.84,26.994,8.84c8.84,0,17.337-2.202,25.449-6.609
			c8.109-4.405,13.956-11.364,18.027-20.877l0.232,0.383V652.5h30v-4.011c-5-0.573-6.101-1.308-8.296-2.202
			C364.011,645.394,362.059,643.878,360.82,641.737z"/>
		<path class="st1" d="M158.5,529.222v56.126c3-0.513,6.15-1.025,8.906-1.526c2.324-0.423,5.033-0.849,7.38-1.274l-0.161-53.544
			c0-6.001,0.427-10.117,3.48-12.354c3.053-2.233,6.395-3.416,9.395-3.543V510.5h-43v2.825c3,0.127,7.096,1.339,10.053,3.639
			C157.51,519.262,158.5,523.35,158.5,529.222z"/>
		<path class="st1" d="M225.379,638.661c-1.845,2.618-4.341,4.862-7.489,6.137c-3.148,1.279-5.395,1.702-10.673,1.702h-12.117
			c-6.934,0-12.028-0.969-15.081-3.333c-3.053-2.36-4.579-6.742-4.579-12.872l-0.219-34.98c-2.632,0.463-6.006,0.881-8.609,1.354
			c-2.487,0.452-5.112,0.879-8.112,1.338v34.893c0,4.916-0.612,8.731-3.25,11.445c-2.64,2.714-5.541,4.069-8.975,4.069l-1.775-0.568
			v4.653h84.015l5.343-25h-2.852C229.099,633.5,227.224,636.044,225.379,638.661z"/>
		<path class="st1" d="M106.991,597.633L75.846,510.5H65.542L27.914,623.18c1.838-0.784,3.697-2.099,5.598-2.87l8.748-25.906
			l1.622-4.518L65.351,523.5h0.381l22.898,66.325l1.738,4.836l2.139,6.359C97.235,599.741,102.062,598.865,106.991,597.633z"/>
		<path class="st1" d="M124.22,641.313c-1.972-2.808-4.071-7.342-6.297-13.599l-6.961-19.647c-5,1.139-9.914,2.299-14.735,3.481
			l6.159,18.082c0,0.258,0.127,0.64,0.381,1.15c1.208,3.639,1.814,6.544,1.814,8.715c0,3.96-1.486,6.386-4.028,7.278
			c-2.543,0.894-7.054,1.341-10.054,1.341v4.386h45v-4.388c-1-0.254-4.447-0.749-6.26-1.484
			C127.426,645.893,126.19,644.123,124.22,641.313z"/>
		<path class="st1" d="M28.809,638.588c0-1.841,0.35-4.107,0.976-6.711c-1.172,0.461-2.369,0.914-3.516,1.381
			c-0.864,0.352-1.711,0.708-2.56,1.061c-1.584,3.657-3.658,6.578-5.578,8.722c-2.832,3.16-7.632,4.964-11.632,5.41v4.049h34v-4.049
			c-5,0-6.595-0.653-8.565-1.963C29.965,645.182,28.809,642.548,28.809,638.588z"/>
		<path class="st1" d="M891.104,616.016L857.107,512.5h-10.304l-29.331,83.412c4.931,1.23,9.756,1.904,14.484,3.185l2.139-6.42
			l1.738-5.002l21.082-63.175h0.381l21.467,66.732l1.622,4.974l5.56,17.886C887.848,614.865,889.268,615.233,891.104,616.016z"/>
		<path class="st1" d="M819.883,641.307c0-2.17,0.606-5.076,1.814-8.715c0.256-0.51,0.381-0.893,0.381-1.15l6.159-21.71
			c-4.82-1.183-9.735-2.342-14.734-3.481l-6.961,23.275c-2.226,6.257-4.325,10.791-6.297,13.599c-1.97,2.81-4.44,4.581-6.252,5.315
			c-1.814,0.735-5.493,1.232-7.493,1.484v3.576h46v-3.574c-4,0-6.776-0.446-9.321-1.341
			C820.635,647.693,819.883,645.267,819.883,641.307z"/>
		<path class="st1" d="M903.692,644.856c-1.919-2.144-5.073-10.506-6.659-14.165c-0.851-0.354-1.651-0.709-2.515-1.061
			c-1.148-0.466-2.321-0.922-3.493-1.381c0.628,2.603,2.802,10.312,2.802,12.153c0,3.96-0.972,6.594-2.944,7.901
			c-1.97,1.31-5.383,1.963-8.383,1.963v3.235h32v-3.235C909.5,649.819,906.524,648.016,903.692,644.856z"/>
	</g>
</g>
</svg>
